{
    "location": "QUARTZ_RACE",
    "required_laps": 2,

    "finish_line_coords": "232 7 -163 240 12 -161",
    "lap_reset_coords": "241 8 -142 241 11 -140",
    "spawn_coords": "226 6 -158 240 12 -156"
}

