tellraw @a[score_g.sa_min=1,score_g.sa=1] {"text":"","extra":[{"text":"[","color":"gray"},{"text":"IR","color":"aqua","bold":"true","hoverEvent":{"action":"show_text","value":{"text":"Ice Race","color":"aqua"}},"clickEvent":{"action":"run_command","value":"/scoreboard players set @p gp.tp 2065128021"}},{"text":"]","color":"gray"},{"text":": "},{"selector":"@s"},{"text":" took first place!","color":"green"}]}
playsound minecraft:entity.player.levelup voice @a
fill 42 33 -31 42 33 -32 redstone_block
scoreboard players set @s ir.pc 1
scoreboard players operation @s ir. = @s ir.pc
scoreboard players operation @s ir. *= -1 g.number
