clear @s
effect @s clear
scoreboard players set @s[score_g.host_min=1,score_g.host=1] gp.bk 183650979
function ego:blockhunt/hospital/undisguise
scoreboard teams join bhh.h @s
execute @s[team=bhh.h] ~ ~ ~ function ego:blockhunt/hospital/give_disguise
minecraft:tp @s[team=bhh.h] -1067 7 -236 145 0
scoreboard players set @s bhh.pl 2
