clear @s
effect @s clear
scoreboard players set @s[score_g.host_min=1,score_g.host=1] gp.bk 183650979
function ego:blockhunt/hospital/undisguise
replaceitem entity @s slot.armor.head minecraft:golden_helmet 1 0 {Unbreakable:1,ench:[{id:10,lvl:1},{id:71,lvl:1}]}
replaceitem entity @s slot.armor.chest minecraft:golden_chestplate 1 0 {Unbreakable:1,ench:[{id:10,lvl:1},{id:71,lvl:1}]}
replaceitem entity @s slot.armor.legs minecraft:golden_leggings 1 0 {Unbreakable:1,ench:[{id:10,lvl:1},{id:71,lvl:1}]}
replaceitem entity @s slot.armor.feet minecraft:golden_boots 1 0 {Unbreakable:1,ench:[{id:10,lvl:1},{id:71,lvl:1}]}
scoreboard teams join bhh.v @s
title @s title {"text":"You are now","color":"yellow"}
title @s subtitle {"text":"the seeker!","color":"yellow"}
tellraw @a {"text":"","extra":[{"text":"[","color":"gray"},{"text":"BHH","color":"green","bold":"true","hoverEvent":{"action":"show_text","value":{"text":"Hospital","color":"green"}},"clickEvent":{"action":"run_command","value":"/scoreboard players set @p gp.tp 183650979"}},{"text":"]","color":"gray"},{"text":": "},{"selector":"@s"},{"text":" became a ","color":"gray"},{"text":"seeker","color":"yellow"},{"text":"!","color":"gray"}]}
minecraft:tp @s -1074 25 -267 0 0
scoreboard players set @s bhh.pl 1
