clear @s
effect @s clear
scoreboard players set @s[score_g.host_min=1,score_g.host=1] gp.bk 183650979
function ego:blockhunt/hospital/undisguise
scoreboard teams join bhh.h @s
scoreboard players set @s bhh.pl 1
