execute @s[team=!bhh.v] ~ ~ ~ function ego:blockhunt/hospital/init_player_as_hider if @e[type=minecraft:armor_stand,score_bhh.st_min=0,score_bhh.st=1,tag=bhh.stand]
execute @s[team=bhh.v] ~ ~ ~ function ego:blockhunt/hospital/init_player_as_hider_from_virus if @e[type=minecraft:armor_stand,score_bhh.st_min=0,score_bhh.st=1,tag=bhh.stand]
function ego:blockhunt/hospital/add_to_round_as_hider if @e[type=minecraft:armor_stand,score_bhh.st_min=2,tag=bhh.stand]
