scoreboard players reset Countdown vrh.
title @a subtitle {"text":""}
title @a subtitle {"text":"The virus has been released!","color":"yellow"}
execute @a ~ ~ ~ playsound minecraft:entity.wither.death voice @s
fill -134 105 -1440 -132 105 -1438 air
scoreboard players operation @s vrh.ti = &GameTime vrh.cl
scoreboard players set @s vrh.st 2
