scoreboard players set @a[m=2,score_g.sa_min=1,score_g.sa=1,score_vrh.pl_min=2,score_vrh.pl=2] gp.tp 1521378220
scoreboard teams join vrh.h @a[m=2,team=vrh.v,score_g.sa_min=1,score_g.sa=1,score_vrh.pl_min=2,score_vrh.pl=2]
scoreboard players set @a[m=2,score_g.sa_min=1,score_g.sa=1,score_vrh.pl_min=2,score_vrh.pl=2] vrh.pl 0
fill -134 105 -1440 -132 105 -1438 coal_block 0
setblock -133 105 -1439 glowstone 0
clone -169 113 -1432 -155 99 -1431 -140 99 -1432
scoreboard players reset Countdown vrh.
scoreboard players reset Minutes vrh.
scoreboard players reset Seconds vrh.
scoreboard players set @s vrh.st 0
