execute @s[score_vrh.chi_min=0,score_vrh.chi=0] ~ ~ ~ title @a title {"text":"The virus won!","color":"yellow"}
execute @s[score_vrh.chi_min=0,score_vrh.chi=0] ~ ~ ~ tellraw @a {"text":"","extra":[{"text":"[","color":"gray"},{"text":"VRH","color":"red","bold":"true","hoverEvent":{"action":"show_text","value":{"text":"Virus Hell","color":"red"}},"clickEvent":{"action":"run_command","value":"/scoreboard players set @p gp.tp 1521378220"}},{"text":"]","color":"gray"},{"text":": "},{"text":"The virus won!","color":"yellow"}]}
execute @s[score_vrh.chi_min=1] ~ ~ ~ title @a title {"text":"Time!","color":"green"}
execute @s[score_vrh.chi_min=1] ~ ~ ~ title @a subtitle {"text":"The hiders won!","color":"green"}
execute @s[score_vrh.chi_min=1] ~ ~ ~ tellraw @a {"text":"","extra":[{"text":"[","color":"gray"},{"text":"VRH","color":"red","bold":"true","hoverEvent":{"action":"show_text","value":{"text":"Virus Hell","color":"red"}},"clickEvent":{"action":"run_command","value":"/scoreboard players set @p gp.tp 1521378220"}},{"text":"]","color":"gray"},{"text":": "},{"text":"The time is up! The hiders won!","color":"yellow"}]}
execute @s[score_vrh.chi_min=1] ~ ~ ~ scoreboard players reset Seconds vrh.
execute @s[score_vrh.chi_min=1] ~ ~ ~ scoreboard players reset Minutes vrh.
tellraw @a[score_g.host_min=1,score_g.host=1] {"text":"","extra":[{"text":"[","color":"gray"},{"text":"VRH","color":"red","bold":"true","hoverEvent":{"action":"show_text","value":{"text":"Virus Hell","color":"red"}},"clickEvent":{"action":"run_command","value":"/scoreboard players set @p gp.tp 1521378220"}},{"text":"]","color":"gray"},{"text":": "},{"text":"Hiders: ","color":"green"},{"selector":"@a[m=2,team=vrh.h,score_g.sa_min=1,score_g.sa=1,score_vrh.pl_min=2,score_vrh.pl=2]"}]}
tellraw @a[score_g.host_min=1,score_g.host=1] {"text":"","extra":[{"text":"[","color":"gray"},{"text":"VRH","color":"red","bold":"true","hoverEvent":{"action":"show_text","value":{"text":"Virus Hell","color":"red"}},"clickEvent":{"action":"run_command","value":"/scoreboard players set @p gp.tp 1521378220"}},{"text":"]","color":"gray"},{"text":": "},{"text":"Virus: ","color":"yellow"},{"selector":"@a[m=2,team=vrh.v,score_g.sa_min=1,score_g.sa=1,score_vrh.pl_min=2,score_vrh.pl=2]"}]}
fill -134 105 -1440 -132 105 -1438 coal_block 0
setblock -133 105 -1439 glowstone 0
scoreboard players set @s vrh.st 3
