execute @a[m=2,score_vrh.pl_min=1,score_vrh.pl=2] ~ ~ ~ function ego:virus/virus_hell/reset_player
scoreboard players set @a[m=2,score_vrh.pl_min=1,score_vrh.pl=2] gp.tp 1521378220
scoreboard players reset * g.host
scoreboard players set @e[type=minecraft:armor_stand,tag=gp.stand] gp.pvp 0
scoreboard players set @e[type=minecraft:armor_stand,tag=gp.stand] gp.sat 1
gamerule naturalRegeneration true
scoreboard players set @e[type=minecraft:armor_stand,tag=gp.stand] gp.rgt 0
scoreboard players set @e[type=minecraft:armor_stand,score_gp.cgi_min=1521378220,score_gp.cgi=1521378220,tag=gp.stand] gp.tp 0
scoreboard players set @e[type=minecraft:armor_stand,score_gp.cgi_min=1521378220,score_gp.cgi=1521378220,tag=gp.stand] gp.cgi 0
tellraw @a[score_gr.ec_min=1,score_gr.ec=1] {"text":"","extra":[{"text":"[","color":"gray"},{"text":"VRH","color":"red","bold":"true","hoverEvent":{"action":"show_text","value":{"text":"Virus Hell","color":"red"}},"clickEvent":{"action":"run_command","value":"/scoreboard players set @p gp.tp 1521378220"}},{"text":"]","color":"gray"},{"text":": "},{"text":"Virus Hell","color":"red","bold":"true","hoverEvent":{"action":"show_text","value":{"text":"Virus Hell","color":"red"}},"clickEvent":{"action":"run_command","value":"/scoreboard players set @p gp.tp 1521378220"}},{"text":" has stopped!","color":"red"}]}
kill @e[tag=vrh.entity]
fill -134 105 -1440 -132 105 -1438 coal_block 0
setblock -133 105 -1439 glowstone 0
clone -169 113 -1432 -155 99 -1431 -140 99 -1432
scoreboard objectives remove vrh.
scoreboard objectives remove vrh.pl
scoreboard objectives remove vrh.ti
scoreboard objectives remove vrh.chi
scoreboard objectives remove vrh.cvr
scoreboard objectives remove vrh.gl
scoreboard objectives remove vrh.cl
scoreboard objectives remove vrh.igl
scoreboard objectives remove vrh.igt
scoreboard objectives remove vrh.icd
scoreboard objectives remove vrh.st
scoreboard teams remove vrh.h
scoreboard teams remove vrh.v
scoreboard teams remove vrh.d_y
scoreboard teams remove vrh.d_g
