execute @s[team=!vrh.v] ~ ~ ~ function ego:virus/virus_hell/init_player_as_hider if @e[type=minecraft:armor_stand,score_vrh.st_min=0,score_vrh.st=1,tag=vrh.stand]
execute @s[team=vrh.v] ~ ~ ~ function ego:virus/virus_hell/init_player_as_hider_from_virus if @e[type=minecraft:armor_stand,score_vrh.st_min=0,score_vrh.st=1,tag=vrh.stand]
function ego:virus/virus_hell/add_to_round_as_hider if @e[type=minecraft:armor_stand,score_vrh.st_min=2,tag=vrh.stand]
