minecraft:tp @a[x=-21,y=5,z=86,dx=0,dy=2,dz=2,m=2,score_g.sa_min=1,score_g.sa=1,score_ad.pl_min=1,score_ad.pl=1] ~-1 ~ ~
minecraft:tp @a[x=-20,y=7,z=88,dx=0,dy=-2,dz=-2,m=2,score_g.sa_min=1,score_g.sa=1,score_ad.pl_min=1,score_ad.pl=1] ~2 ~ ~
scoreboard players set @s ad.ti 120
execute @a[x=-33,y=3,z=81,dx=12,dy=10,dz=12,m=2,score_g.sa_min=1,score_g.sa=1,score_ad.pl_min=1,score_ad.pl=1] ~ ~ ~ function ego:anvil_drop/add_to_round
function ego:anvil_drop/close_doors
scoreboard players set @s ad.st 1
