scoreboard players reset Players ad.
scoreboard players reset Time_Elapsed ad.
scoreboard players reset Countdown ad.
kill @e[x=-38,y=0,z=76,dx=22,dy=35,dz=22,type=minecraft:falling_block]
fill -33 3 81 -21 13 93 air 0 replace anvil
scoreboard players set @a[m=2,score_g.sa_min=1,score_g.sa=1,score_ad.pl_min=2,score_ad.pl=2] ad.pl 0
scoreboard players set @s ad.st 0
