kill @e[x=-38,y=0,z=76,dx=22,dy=35,dz=22,type=minecraft:falling_block]
fill -33 3 81 -21 13 93 air 0 replace anvil
execute @a[m=2,score_ad.pl_min=1] ~ ~ ~ function ego:anvil_drop/reset_player
scoreboard players reset * g.host
scoreboard players set @e[type=minecraft:armor_stand,tag=gp.stand] gp.pvp 0
scoreboard players set @e[type=minecraft:armor_stand,tag=gp.stand] gp.sat 1
gamerule naturalRegeneration true
scoreboard players set @e[type=minecraft:armor_stand,tag=gp.stand] gp.rgt 0
scoreboard players set @e[type=minecraft:armor_stand,score_gp.cgi_min=2071894910,score_gp.cgi=2071894910,tag=gp.stand] gp.tp 0
scoreboard players set @e[type=minecraft:armor_stand,score_gp.cgi_min=2071894910,score_gp.cgi=2071894910,tag=gp.stand] gp.cgi 0
tellraw @a[score_gr.ec_min=1,score_gr.ec=1] {"text":"","extra":[{"text":"[","color":"gray"},{"text":"AD","color":"green","bold":"true","hoverEvent":{"action":"show_text","value":{"text":"Anvil Drop","color":"green"}},"clickEvent":{"action":"run_command","value":"/scoreboard players set @p gp.tp 2071894910"}},{"text":"]","color":"gray"},{"text":": "},{"text":"Anvil Drop","color":"green","bold":"true","hoverEvent":{"action":"show_text","value":{"text":"Anvil Drop","color":"green"}},"clickEvent":{"action":"run_command","value":"/scoreboard players set @p gp.tp 2071894910"}},{"text":" has stopped!","color":"red"}]}
scoreboard objectives remove ad.
scoreboard objectives remove ad.ti
scoreboard objectives remove ad.st
scoreboard objectives remove ad.pl
scoreboard objectives remove ad.dp
scoreboard objectives remove ad.ipe1
scoreboard objectives remove ad.ipe2
scoreboard objectives remove ad.ipe3
scoreboard objectives remove ad.iti1
scoreboard objectives remove ad.iti2
scoreboard objectives remove ad.iti3
scoreboard objectives remove ad.ti1
scoreboard objectives remove ad.ti2
scoreboard objectives remove ad.ti3
scoreboard objectives remove ad.cl
scoreboard teams remove ad.
scoreboard teams remove ad.d_y
kill @e[tag=ad.entity]
function ego:anvil_drop/close_doors
