scoreboard players reset Countdown vr1.
title @a subtitle {"text":""}
title @a subtitle {"text":"The virus has been released!","color":"yellow"}
execute @a ~ ~ ~ playsound minecraft:entity.wither.death voice @s
fill -73 52 -222 -66 52 -229 stonebrick 0 replace redstone_block 0
fill -73 49 -229 -66 49 -222 redstone_block 0 replace stonebrick 0
scoreboard players operation @s vr1.ti = &GameTime vr1.cl
scoreboard players set @s vr1.st 2
