execute @a[m=2,score_vr1.pl_min=1,score_vr1.pl=2] ~ ~ ~ function ego:virus/virus_1/reset_player
scoreboard players set @a[m=2,score_vr1.pl_min=1,score_vr1.pl=2] gp.tp 2115807378
scoreboard players reset * g.host
scoreboard players set @e[type=minecraft:armor_stand,tag=gp.stand] gp.pvp 0
scoreboard players set @e[type=minecraft:armor_stand,tag=gp.stand] gp.sat 1
gamerule naturalRegeneration true
scoreboard players set @e[type=minecraft:armor_stand,tag=gp.stand] gp.rgt 0
scoreboard players set @e[type=minecraft:armor_stand,score_gp.cgi_min=2115807378,score_gp.cgi=2115807378,tag=gp.stand] gp.tp 0
scoreboard players set @e[type=minecraft:armor_stand,score_gp.cgi_min=2115807378,score_gp.cgi=2115807378,tag=gp.stand] gp.cgi 0
tellraw @a[score_gr.ec_min=1,score_gr.ec=1] {"text":"","extra":[{"text":"[","color":"gray"},{"text":"VR1","color":"yellow","bold":"true","hoverEvent":{"action":"show_text","value":{"text":"Virus 1","color":"yellow"}},"clickEvent":{"action":"run_command","value":"/scoreboard players set @p gp.tp 2115807378"}},{"text":"]","color":"gray"},{"text":": "},{"text":"Virus 1","color":"yellow","bold":"true","hoverEvent":{"action":"show_text","value":{"text":"Virus 1","color":"yellow"}},"clickEvent":{"action":"run_command","value":"/scoreboard players set @p gp.tp 2115807378"}},{"text":" has stopped!","color":"red"}]}
kill @e[tag=vr1.entity]
fill -73 52 -222 -66 52 -229 redstone_block 0 replace stonebrick 0
fill -73 49 -229 -66 49 -222 redstone_block 0 replace stonebrick 0
scoreboard objectives remove vr1.
scoreboard objectives remove vr1.pl
scoreboard objectives remove vr1.ti
scoreboard objectives remove vr1.chi
scoreboard objectives remove vr1.cvr
scoreboard objectives remove vr1.gl
scoreboard objectives remove vr1.cl
scoreboard objectives remove vr1.igl
scoreboard objectives remove vr1.igt
scoreboard objectives remove vr1.icd
scoreboard objectives remove vr1.st
scoreboard teams remove vr1.h
scoreboard teams remove vr1.v
scoreboard teams remove vr1.d_y
scoreboard teams remove vr1.d_g
