execute @s[team=!vr1.v] ~ ~ ~ function ego:virus/virus_1/init_player_as_hider if @e[type=minecraft:armor_stand,score_vr1.st_min=0,score_vr1.st=1,tag=vr1.stand]
execute @s[team=vr1.v] ~ ~ ~ function ego:virus/virus_1/init_player_as_hider_from_virus if @e[type=minecraft:armor_stand,score_vr1.st_min=0,score_vr1.st=1,tag=vr1.stand]
function ego:virus/virus_1/add_to_round_as_hider if @e[type=minecraft:armor_stand,score_vr1.st_min=2,tag=vr1.stand]
