clear @s
effect @s clear
scoreboard players set @s[score_g.host_min=1,score_g.host=1] gp.bk 119885644
function ego:blockhunt/mushroom_village/undisguise
scoreboard teams join bhmv.h @s
execute @s[team=bhmv.h] ~ ~ ~ function ego:blockhunt/mushroom_village/give_disguise
minecraft:tp @s[team=bhmv.h] -1075 23 -196
scoreboard players set @s bhmv.pl 2
