clear @s
effect @s clear
scoreboard players set @s[score_g.host_min=1,score_g.host=1] gp.bk 119885644
function ego:blockhunt/mushroom_village/undisguise
scoreboard teams join bhmv.h @s
scoreboard players set @s bhmv.pl 1
