execute @s[team=!bhmv.v] ~ ~ ~ function ego:blockhunt/mushroom_village/init_player_as_hider if @e[type=minecraft:armor_stand,score_bhmv.st_min=0,score_bhmv.st=1,tag=bhmv.stand]
execute @s[team=bhmv.v] ~ ~ ~ function ego:blockhunt/mushroom_village/init_player_as_hider_from_virus if @e[type=minecraft:armor_stand,score_bhmv.st_min=0,score_bhmv.st=1,tag=bhmv.stand]
function ego:blockhunt/mushroom_village/add_to_round_as_hider if @e[type=minecraft:armor_stand,score_bhmv.st_min=2,tag=bhmv.stand]
