clear @s
effect @s clear
scoreboard players set @s[score_g.host_min=1,score_g.host=1] gp.bk 795649988
function ego:blockhunt/resort/undisguise
scoreboard teams join bhre.h @s
execute @s[team=bhre.h] ~ ~ ~ function ego:blockhunt/resort/give_disguise
minecraft:tp @s[team=bhre.h] -1420 66 -36 145 0
scoreboard players set @s bhre.pl 2
