clear @s
effect @s clear
scoreboard players set @s[score_g.host_min=1,score_g.host=1] gp.bk 795649988
function ego:blockhunt/resort/undisguise
scoreboard teams join bhre.h @s
scoreboard players set @s bhre.pl 1
