execute @s[team=!bhre.v] ~ ~ ~ function ego:blockhunt/resort/init_player_as_hider if @e[type=minecraft:armor_stand,score_bhre.st_min=0,score_bhre.st=1,tag=bhre.stand]
execute @s[team=bhre.v] ~ ~ ~ function ego:blockhunt/resort/init_player_as_hider_from_virus if @e[type=minecraft:armor_stand,score_bhre.st_min=0,score_bhre.st=1,tag=bhre.stand]
function ego:blockhunt/resort/add_to_round_as_hider if @e[type=minecraft:armor_stand,score_bhre.st_min=2,tag=bhre.stand]
