clear @s
effect @s clear
scoreboard players set @s[score_g.host_min=1,score_g.host=1] gp.bk 1278338284
function ego:blockhunt/park/undisguise
scoreboard teams join bhp.h @s
execute @s[team=bhp.h] ~ ~ ~ function ego:blockhunt/park/give_disguise
minecraft:tp @s[team=bhp.h] -1247 8 -230
scoreboard players set @s bhp.pl 2
