clear @s
effect @s clear
scoreboard players set @s[score_g.host_min=1,score_g.host=1] gp.bk 1278338284
function ego:blockhunt/park/undisguise
scoreboard teams join bhp.h @s
scoreboard players set @s bhp.pl 1
