execute @s[team=!bhp.v] ~ ~ ~ function ego:blockhunt/park/init_player_as_hider if @e[type=minecraft:armor_stand,score_bhp.st_min=0,score_bhp.st=1,tag=bhp.stand]
execute @s[team=bhp.v] ~ ~ ~ function ego:blockhunt/park/init_player_as_hider_from_virus if @e[type=minecraft:armor_stand,score_bhp.st_min=0,score_bhp.st=1,tag=bhp.stand]
function ego:blockhunt/park/add_to_round_as_hider if @e[type=minecraft:armor_stand,score_bhp.st_min=2,tag=bhp.stand]
