function ego:floo_network/stop_events
tellraw @a[score_gr.ec_min=1,score_gr.ec=1] {"text":"","extra":[{"text":"[","color":"gray"},{"text":"Floo","color":"green","bold":"true","hoverEvent":{"action":"show_text","value":{"text":"Floo Network","color":"green"}},"clickEvent":{"action":"run_command","value":"/scoreboard players set @p gp.tp 1416570985"}},{"text":"]","color":"gray"},{"text":": "},{"text":"Floo Network","color":"green","bold":"true","hoverEvent":{"action":"show_text","value":{"text":"Floo Network","color":"green"}},"clickEvent":{"action":"run_command","value":"/scoreboard players set @p gp.tp 1416570985"}},{"text":" has been uninstalled!","color":"gray"}]}
scoreboard objectives remove g.sa
scoreboard objectives remove g.de
scoreboard objectives remove g.cs
scoreboard objectives remove g.lg
scoreboard objectives remove g.to
scoreboard objectives remove g.sc
scoreboard objectives remove g.ab
scoreboard objectives remove g.ai
scoreboard objectives remove g.ae
scoreboard objectives remove g.qr
scoreboard objectives remove g.temp
scoreboard objectives remove g.ftp
scoreboard objectives remove g.stp
scoreboard objectives remove g.host
scoreboard objectives remove gr.at
scoreboard objectives remove gr.apps
scoreboard objectives remove gr.ec
scoreboard objectives remove gr.le
scoreboard objectives remove gr.cmd
scoreboard objectives remove gr.total
scoreboard objectives remove gp.na
scoreboard objectives remove gp.id
scoreboard objectives remove gp.tp
scoreboard objectives remove gp.bk
scoreboard objectives remove gp.trm
scoreboard objectives remove gp.cgi
scoreboard objectives remove gp.pvp
scoreboard objectives remove gp.sat
scoreboard objectives remove gp.rgt
scoreboard objectives setdisplay list
scoreboard objectives remove fl.rbs
scoreboard objectives remove fl.rac
scoreboard objectives remove fl.vot
scoreboard objectives remove fl.dly
scoreboard objectives remove fl.dim
scoreboard objectives remove fl.rgt
scoreboard objectives remove fl.rgd
kill @e[type=minecraft:armor_stand,tag=gp.stand]
