clear @s
effect @s clear
scoreboard players set @s[score_g.host_min=1,score_g.host=1] gp.bk 1233606541
function ego:blockhunt/zelda/undisguise
scoreboard teams join bhz.h @s
execute @s[team=bhz.h] ~ ~ ~ function ego:blockhunt/zelda/give_disguise
minecraft:tp @s[team=bhz.h] -1169 7 -184 180 0
scoreboard players set @s bhz.pl 2
