clear @s
effect @s clear
scoreboard players set @s[score_g.host_min=1,score_g.host=1] gp.bk 1233606541
function ego:blockhunt/zelda/undisguise
scoreboard teams join bhz.h @s
scoreboard players set @s bhz.pl 1
