execute @s[team=!bhz.v] ~ ~ ~ function ego:blockhunt/zelda/init_player_as_hider if @e[type=minecraft:armor_stand,score_bhz.st_min=0,score_bhz.st=1,tag=bhz.stand]
execute @s[team=bhz.v] ~ ~ ~ function ego:blockhunt/zelda/init_player_as_hider_from_virus if @e[type=minecraft:armor_stand,score_bhz.st_min=0,score_bhz.st=1,tag=bhz.stand]
function ego:blockhunt/zelda/add_to_round_as_hider if @e[type=minecraft:armor_stand,score_bhz.st_min=2,tag=bhz.stand]
