clear @s
effect @s clear
scoreboard players set @s[score_g.host_min=1,score_g.host=1] gp.bk 2053033941
function ego:blockhunt/castle_de_emmy/undisguise
scoreboard teams join bhcde.h @s
execute @s[team=bhcde.h] ~ ~ ~ function ego:blockhunt/castle_de_emmy/give_disguise
minecraft:tp @s[team=bhcde.h] -1616 4 -59
scoreboard players set @s bhcde.pl 2
