clear @s
effect @s clear
scoreboard players set @s[score_g.host_min=1,score_g.host=1] gp.bk 2053033941
function ego:blockhunt/castle_de_emmy/undisguise
scoreboard teams join bhcde.h @s
scoreboard players set @s bhcde.pl 1
