execute @s[team=!bhcde.v] ~ ~ ~ function ego:blockhunt/castle_de_emmy/init_player_as_hider if @e[type=minecraft:armor_stand,score_bhcde.st_min=0,score_bhcde.st=1,tag=bhcde.stand]
execute @s[team=bhcde.v] ~ ~ ~ function ego:blockhunt/castle_de_emmy/init_player_as_hider_from_virus if @e[type=minecraft:armor_stand,score_bhcde.st_min=0,score_bhcde.st=1,tag=bhcde.stand]
function ego:blockhunt/castle_de_emmy/add_to_round_as_hider if @e[type=minecraft:armor_stand,score_bhcde.st_min=2,tag=bhcde.stand]
