clear @s
effect @s clear
scoreboard players set @s[score_g.host_min=1,score_g.host=1] gp.bk 1356189675
function ego:blockhunt/virus_2/undisguise
scoreboard teams join bhvr2.h @s
execute @s[team=bhvr2.h] ~ ~ ~ function ego:blockhunt/virus_2/give_disguise
minecraft:tp @s[team=bhvr2.h] -61.0 40 -69.0
scoreboard players set @s bhvr2.pl 2
