execute @s[team=!bhvr2.v] ~ ~ ~ function ego:blockhunt/virus_2/init_player_as_hider if @e[type=minecraft:armor_stand,score_bhvr2.st_min=0,score_bhvr2.st=1,tag=bhvr2.stand]
execute @s[team=bhvr2.v] ~ ~ ~ function ego:blockhunt/virus_2/init_player_as_hider_from_virus if @e[type=minecraft:armor_stand,score_bhvr2.st_min=0,score_bhvr2.st=1,tag=bhvr2.stand]
function ego:blockhunt/virus_2/add_to_round_as_hider if @e[type=minecraft:armor_stand,score_bhvr2.st_min=2,tag=bhvr2.stand]
