clear @s
effect @s clear
scoreboard players set @s[score_g.host_min=1,score_g.host=1] gp.bk 518834438
function ego:blockhunt/four_corners/undisguise
scoreboard teams join bhfc.h @s
execute @s[team=bhfc.h] ~ ~ ~ function ego:blockhunt/four_corners/give_disguise
minecraft:tp @s[team=bhfc.h] -1313 74 -235
scoreboard players set @s bhfc.pl 2
