clear @s
effect @s clear
scoreboard players set @s[score_g.host_min=1,score_g.host=1] gp.bk 518834438
function ego:blockhunt/four_corners/undisguise
scoreboard teams join bhfc.h @s
scoreboard players set @s bhfc.pl 1
