execute @s[team=!bhfc.v] ~ ~ ~ function ego:blockhunt/four_corners/init_player_as_hider if @e[type=minecraft:armor_stand,score_bhfc.st_min=0,score_bhfc.st=1,tag=bhfc.stand]
execute @s[team=bhfc.v] ~ ~ ~ function ego:blockhunt/four_corners/init_player_as_hider_from_virus if @e[type=minecraft:armor_stand,score_bhfc.st_min=0,score_bhfc.st=1,tag=bhfc.stand]
function ego:blockhunt/four_corners/add_to_round_as_hider if @e[type=minecraft:armor_stand,score_bhfc.st_min=2,tag=bhfc.stand]
