clear @s
effect @s clear
scoreboard players set @s[score_g.host_min=1,score_g.host=1] gp.bk 376134566
function ego:blockhunt/rainbow/undisguise
scoreboard teams join bhra.h @s
scoreboard players set @s bhra.pl 1
