execute @s[team=!bhra.v] ~ ~ ~ function ego:blockhunt/rainbow/init_player_as_hider if @e[type=minecraft:armor_stand,score_bhra.st_min=0,score_bhra.st=1,tag=bhra.stand]
execute @s[team=bhra.v] ~ ~ ~ function ego:blockhunt/rainbow/init_player_as_hider_from_virus if @e[type=minecraft:armor_stand,score_bhra.st_min=0,score_bhra.st=1,tag=bhra.stand]
function ego:blockhunt/rainbow/add_to_round_as_hider if @e[type=minecraft:armor_stand,score_bhra.st_min=2,tag=bhra.stand]
