execute @a[m=2,score_saltr.pl_min=1,score_saltr.pl=1] ~ ~ ~ function ego:race/salt_race/reset_player
scoreboard players reset * g.host
scoreboard players set @e[type=minecraft:armor_stand,tag=gp.stand] gp.pvp 0
scoreboard players set @e[type=minecraft:armor_stand,tag=gp.stand] gp.sat 1
gamerule naturalRegeneration true
scoreboard players set @e[type=minecraft:armor_stand,tag=gp.stand] gp.rgt 0
scoreboard players set @e[type=minecraft:armor_stand,score_gp.cgi_min=1272235179,score_gp.cgi=1272235179,tag=gp.stand] gp.tp 0
scoreboard players set @e[type=minecraft:armor_stand,score_gp.cgi_min=1272235179,score_gp.cgi=1272235179,tag=gp.stand] gp.cgi 0
tellraw @a[score_gr.ec_min=1,score_gr.ec=1] {"text":"","extra":[{"text":"[","color":"gray"},{"text":"SaltR","color":"gray","bold":"true","hoverEvent":{"action":"show_text","value":{"text":"Salt Race","color":"gray"}},"clickEvent":{"action":"run_command","value":"/scoreboard players set @p gp.tp 1272235179"}},{"text":"]","color":"gray"},{"text":": "},{"text":"Salt Race","color":"gray","bold":"true","hoverEvent":{"action":"show_text","value":{"text":"Salt Race","color":"gray"}},"clickEvent":{"action":"run_command","value":"/scoreboard players set @p gp.tp 1272235179"}},{"text":" has stopped!","color":"red"}]}
scoreboard objectives remove saltr.
scoreboard objectives remove saltr.cd
scoreboard objectives remove saltr.pl
scoreboard objectives remove saltr.pc
scoreboard objectives remove saltr.cp
scoreboard teams remove saltr.r
kill @e[tag=saltr.entity]
setblock 459 11 -35 air
setblock 459 11 -33 air
setblock 459 11 -31 air
fill 468 6 -31 468 6 -35 redstone_block 0 replace stonebrick 0
