scoreboard players set @a gSA 0
scoreboard players set @e[type=armor_stand,tag=FlooStand] FLtp 0
scoreboard players set @e[type=armor_stand,tag=FlooStand] FLpvp 0
scoreboard players set @e[type=armor_stand,tag=FlooStand] FLsat 1
scoreboard players set @e[type=armor_stand,tag=FlooStand] FLgmd 1
scoreboard players set @e[type=armor_stand,tag=FlooStand] FLwea 0
scoreboard players set @e[type=armor_stand,tag=FlooStand] FLreg 0
gamerule naturalRegeneration true
scoreboard players set @e[type=armor_stand,tag=FlooStand,score_FLgam_min=2052427056,score_FLgam=2052427056] FLgam 0
tellraw @a[score_EC_min=0,score_EC=0] {"text":"","extra":[{"text":"[","color":"gray"},{"text":"TSToken","color":"dark_aqua","bold":"true","hoverEvent":{"action":"show_text","value":{"text":"Teamspeak Token","color":"dark_aqua"}},"clickEvent":{"action":"run_command","value":"/scoreboard players set @p FLtp 2052427056"}},{"text":"]","color":"gray"},{"text":": "},{"text":"Teamspeak Token","color":"dark_aqua","bold":"true","hoverEvent":{"action":"show_text","value":{"text":"Teamspeak Token","color":"dark_aqua"}},"clickEvent":{"action":"run_command","value":"/scoreboard players set @p FLtp 2052427056"}},{"text":" has stopped!","color":"red"}]}
scoreboard objectives remove TS
scoreboard objectives remove TSst
scoreboard objectives remove TSpl
scoreboard objectives remove TScn
scoreboard objectives remove TSpw
scoreboard objectives remove TSdt
scoreboard objectives remove TSipw
function ego:ts_token/reset_arena
kill @e[tag=TSEntity]
