clear @s
effect @s clear
scoreboard players set @s[score_g.host_min=1,score_g.host=1] gp.bk 928077502
function ego:blockhunt/jungle/undisguise
scoreboard teams join bhj.h @s
scoreboard players set @s bhj.pl 1
