execute @s[team=!bhj.v] ~ ~ ~ function ego:blockhunt/jungle/init_player_as_hider if @e[type=minecraft:armor_stand,score_bhj.st_min=0,score_bhj.st=1,tag=bhj.stand]
execute @s[team=bhj.v] ~ ~ ~ function ego:blockhunt/jungle/init_player_as_hider_from_virus if @e[type=minecraft:armor_stand,score_bhj.st_min=0,score_bhj.st=1,tag=bhj.stand]
function ego:blockhunt/jungle/add_to_round_as_hider if @e[type=minecraft:armor_stand,score_bhj.st_min=2,tag=bhj.stand]
