scoreboard players set @a[m=2,score_g.sa_min=1,score_g.sa=1,score_vrm.pl_min=2,score_vrm.pl=2] gp.tp 1303306030
scoreboard teams join vrm.h @a[m=2,team=vrm.v,score_g.sa_min=1,score_g.sa=1,score_vrm.pl_min=2,score_vrm.pl=2]
scoreboard players set @a[m=2,score_g.sa_min=1,score_g.sa=1,score_vrm.pl_min=2,score_vrm.pl=2] vrm.pl 0
setblock -160 18 -1211 iron_trapdoor 10
playsound minecraft:block.iron_trapdoor.open voice @a -160 18 -1211
fill -152 11 -1213 -152 11 -1209 redstone_block 0 replace stonebrick 0
scoreboard players reset Countdown vrm.
scoreboard players reset Minutes vrm.
scoreboard players reset Seconds vrm.
scoreboard players set @s vrm.st 0
