execute @s[score_vrm.chi_min=0,score_vrm.chi=0] ~ ~ ~ title @a title {"text":"The virus won!","color":"yellow"}
execute @s[score_vrm.chi_min=0,score_vrm.chi=0] ~ ~ ~ tellraw @a {"text":"","extra":[{"text":"[","color":"gray"},{"text":"VRM","color":"gold","bold":"true","hoverEvent":{"action":"show_text","value":{"text":"Mansion Virus","color":"gold"}},"clickEvent":{"action":"run_command","value":"/scoreboard players set @p gp.tp 1303306030"}},{"text":"]","color":"gray"},{"text":": "},{"text":"The virus won!","color":"yellow"}]}
execute @s[score_vrm.chi_min=1] ~ ~ ~ title @a title {"text":"Time!","color":"green"}
execute @s[score_vrm.chi_min=1] ~ ~ ~ title @a subtitle {"text":"The hiders won!","color":"green"}
execute @s[score_vrm.chi_min=1] ~ ~ ~ tellraw @a {"text":"","extra":[{"text":"[","color":"gray"},{"text":"VRM","color":"gold","bold":"true","hoverEvent":{"action":"show_text","value":{"text":"Mansion Virus","color":"gold"}},"clickEvent":{"action":"run_command","value":"/scoreboard players set @p gp.tp 1303306030"}},{"text":"]","color":"gray"},{"text":": "},{"text":"The time is up! The hiders won!","color":"yellow"}]}
execute @s[score_vrm.chi_min=1] ~ ~ ~ scoreboard players reset Seconds vrm.
execute @s[score_vrm.chi_min=1] ~ ~ ~ scoreboard players reset Minutes vrm.
tellraw @a[score_g.host_min=1,score_g.host=1] {"text":"","extra":[{"text":"[","color":"gray"},{"text":"VRM","color":"gold","bold":"true","hoverEvent":{"action":"show_text","value":{"text":"Mansion Virus","color":"gold"}},"clickEvent":{"action":"run_command","value":"/scoreboard players set @p gp.tp 1303306030"}},{"text":"]","color":"gray"},{"text":": "},{"text":"Hiders: ","color":"green"},{"selector":"@a[m=2,team=vrm.h,score_g.sa_min=1,score_g.sa=1,score_vrm.pl_min=2,score_vrm.pl=2]"}]}
tellraw @a[score_g.host_min=1,score_g.host=1] {"text":"","extra":[{"text":"[","color":"gray"},{"text":"VRM","color":"gold","bold":"true","hoverEvent":{"action":"show_text","value":{"text":"Mansion Virus","color":"gold"}},"clickEvent":{"action":"run_command","value":"/scoreboard players set @p gp.tp 1303306030"}},{"text":"]","color":"gray"},{"text":": "},{"text":"Virus: ","color":"yellow"},{"selector":"@a[m=2,team=vrm.v,score_g.sa_min=1,score_g.sa=1,score_vrm.pl_min=2,score_vrm.pl=2]"}]}
setblock -160 18 -1211 iron_trapdoor 10
playsound minecraft:block.iron_trapdoor.open voice @a -160 18 -1211
fill -152 11 -1213 -152 11 -1209 redstone_block 0 replace stonebrick 0
scoreboard players set @s vrm.st 3
