execute @a[m=2,score_vrm.pl_min=1,score_vrm.pl=2] ~ ~ ~ function ego:virus/virus_mansion/reset_player
scoreboard players set @a[m=2,score_vrm.pl_min=1,score_vrm.pl=2] gp.tp 1303306030
scoreboard players reset * g.host
scoreboard players set @e[type=minecraft:armor_stand,tag=gp.stand] gp.pvp 0
scoreboard players set @e[type=minecraft:armor_stand,tag=gp.stand] gp.sat 1
gamerule naturalRegeneration true
scoreboard players set @e[type=minecraft:armor_stand,tag=gp.stand] gp.rgt 0
scoreboard players set @e[type=minecraft:armor_stand,score_gp.cgi_min=1303306030,score_gp.cgi=1303306030,tag=gp.stand] gp.tp 0
scoreboard players set @e[type=minecraft:armor_stand,score_gp.cgi_min=1303306030,score_gp.cgi=1303306030,tag=gp.stand] gp.cgi 0
tellraw @a[score_gr.ec_min=1,score_gr.ec=1] {"text":"","extra":[{"text":"[","color":"gray"},{"text":"VRM","color":"gold","bold":"true","hoverEvent":{"action":"show_text","value":{"text":"Mansion Virus","color":"gold"}},"clickEvent":{"action":"run_command","value":"/scoreboard players set @p gp.tp 1303306030"}},{"text":"]","color":"gray"},{"text":": "},{"text":"Mansion Virus","color":"gold","bold":"true","hoverEvent":{"action":"show_text","value":{"text":"Mansion Virus","color":"gold"}},"clickEvent":{"action":"run_command","value":"/scoreboard players set @p gp.tp 1303306030"}},{"text":" has stopped!","color":"red"}]}
kill @e[tag=vrm.entity]
setblock -160 18 -1211 iron_trapdoor 10
playsound minecraft:block.iron_trapdoor.open voice @a -160 18 -1211
fill -152 11 -1213 -152 11 -1209 redstone_block 0 replace stonebrick 0
scoreboard objectives remove vrm.
scoreboard objectives remove vrm.pl
scoreboard objectives remove vrm.ti
scoreboard objectives remove vrm.chi
scoreboard objectives remove vrm.cvr
scoreboard objectives remove vrm.gl
scoreboard objectives remove vrm.cl
scoreboard objectives remove vrm.igl
scoreboard objectives remove vrm.igt
scoreboard objectives remove vrm.icd
scoreboard objectives remove vrm.st
scoreboard teams remove vrm.h
scoreboard teams remove vrm.v
scoreboard teams remove vrm.d_y
scoreboard teams remove vrm.d_g
