execute @s[team=!vrm.v] ~ ~ ~ function ego:virus/virus_mansion/init_player_as_hider if @e[type=minecraft:armor_stand,score_vrm.st_min=0,score_vrm.st=1,tag=vrm.stand]
execute @s[team=vrm.v] ~ ~ ~ function ego:virus/virus_mansion/init_player_as_hider_from_virus if @e[type=minecraft:armor_stand,score_vrm.st_min=0,score_vrm.st=1,tag=vrm.stand]
function ego:virus/virus_mansion/add_to_round_as_hider if @e[type=minecraft:armor_stand,score_vrm.st_min=2,tag=vrm.stand]
