scoreboard players reset Countdown vr2.
title @a subtitle {"text":""}
title @a subtitle {"text":"The virus has been released!","color":"yellow"}
execute @a ~ ~ ~ playsound minecraft:entity.wither.death voice @s
fill -64 63 -67 -59 63 -72 stonebrick 0 replace redstone_block 0
fill -65 60 -66 -58 60 -73 redstone_block 0 replace stonebrick 0
scoreboard players operation @s vr2.ti = &GameTime vr2.cl
scoreboard players set @s vr2.st 2
