scoreboard players set @a[m=2,score_g.sa_min=1,score_g.sa=1,score_vr2.pl_min=2,score_vr2.pl=2] gp.tp 1723054610
scoreboard teams join vr2.h @a[m=2,team=vr2.v,score_g.sa_min=1,score_g.sa=1,score_vr2.pl_min=2,score_vr2.pl=2]
scoreboard players set @a[m=2,score_g.sa_min=1,score_g.sa=1,score_vr2.pl_min=2,score_vr2.pl=2] vr2.pl 0
fill -64 63 -67 -59 63 -72 redstone_block 0 replace stonebrick 0
fill -65 60 -66 -58 60 -73 redstone_block 0 replace stonebrick 0
scoreboard players reset Countdown vr2.
scoreboard players reset Minutes vr2.
scoreboard players reset Seconds vr2.
scoreboard players set @s vr2.st 0
