execute @s[score_vr2.chi_min=0,score_vr2.chi=0] ~ ~ ~ title @a title {"text":"The virus won!","color":"yellow"}
execute @s[score_vr2.chi_min=0,score_vr2.chi=0] ~ ~ ~ tellraw @a {"text":"","extra":[{"text":"[","color":"gray"},{"text":"VR2","color":"yellow","bold":"true","hoverEvent":{"action":"show_text","value":{"text":"Virus 2","color":"yellow"}},"clickEvent":{"action":"run_command","value":"/scoreboard players set @p gp.tp 1723054610"}},{"text":"]","color":"gray"},{"text":": "},{"text":"The virus won!","color":"yellow"}]}
execute @s[score_vr2.chi_min=1] ~ ~ ~ title @a title {"text":"Time!","color":"green"}
execute @s[score_vr2.chi_min=1] ~ ~ ~ title @a subtitle {"text":"The hiders won!","color":"green"}
execute @s[score_vr2.chi_min=1] ~ ~ ~ tellraw @a {"text":"","extra":[{"text":"[","color":"gray"},{"text":"VR2","color":"yellow","bold":"true","hoverEvent":{"action":"show_text","value":{"text":"Virus 2","color":"yellow"}},"clickEvent":{"action":"run_command","value":"/scoreboard players set @p gp.tp 1723054610"}},{"text":"]","color":"gray"},{"text":": "},{"text":"The time is up! The hiders won!","color":"yellow"}]}
execute @s[score_vr2.chi_min=1] ~ ~ ~ scoreboard players reset Seconds vr2.
execute @s[score_vr2.chi_min=1] ~ ~ ~ scoreboard players reset Minutes vr2.
tellraw @a[score_g.host_min=1,score_g.host=1] {"text":"","extra":[{"text":"[","color":"gray"},{"text":"VR2","color":"yellow","bold":"true","hoverEvent":{"action":"show_text","value":{"text":"Virus 2","color":"yellow"}},"clickEvent":{"action":"run_command","value":"/scoreboard players set @p gp.tp 1723054610"}},{"text":"]","color":"gray"},{"text":": "},{"text":"Hiders: ","color":"green"},{"selector":"@a[m=2,team=vr2.h,score_g.sa_min=1,score_g.sa=1,score_vr2.pl_min=2,score_vr2.pl=2]"}]}
tellraw @a[score_g.host_min=1,score_g.host=1] {"text":"","extra":[{"text":"[","color":"gray"},{"text":"VR2","color":"yellow","bold":"true","hoverEvent":{"action":"show_text","value":{"text":"Virus 2","color":"yellow"}},"clickEvent":{"action":"run_command","value":"/scoreboard players set @p gp.tp 1723054610"}},{"text":"]","color":"gray"},{"text":": "},{"text":"Virus: ","color":"yellow"},{"selector":"@a[m=2,team=vr2.v,score_g.sa_min=1,score_g.sa=1,score_vr2.pl_min=2,score_vr2.pl=2]"}]}
fill -64 63 -67 -59 63 -72 redstone_block 0 replace stonebrick 0
fill -65 60 -66 -58 60 -73 redstone_block 0 replace stonebrick 0
scoreboard players set @s vr2.st 3
