execute @a[m=2,score_vr2.pl_min=1,score_vr2.pl=2] ~ ~ ~ function ego:virus/virus_2/reset_player
scoreboard players set @a[m=2,score_vr2.pl_min=1,score_vr2.pl=2] gp.tp 1723054610
scoreboard players reset * g.host
scoreboard players set @e[type=minecraft:armor_stand,tag=gp.stand] gp.pvp 0
scoreboard players set @e[type=minecraft:armor_stand,tag=gp.stand] gp.sat 1
gamerule naturalRegeneration true
scoreboard players set @e[type=minecraft:armor_stand,tag=gp.stand] gp.rgt 0
scoreboard players set @e[type=minecraft:armor_stand,score_gp.cgi_min=1723054610,score_gp.cgi=1723054610,tag=gp.stand] gp.tp 0
scoreboard players set @e[type=minecraft:armor_stand,score_gp.cgi_min=1723054610,score_gp.cgi=1723054610,tag=gp.stand] gp.cgi 0
tellraw @a[score_gr.ec_min=1,score_gr.ec=1] {"text":"","extra":[{"text":"[","color":"gray"},{"text":"VR2","color":"yellow","bold":"true","hoverEvent":{"action":"show_text","value":{"text":"Virus 2","color":"yellow"}},"clickEvent":{"action":"run_command","value":"/scoreboard players set @p gp.tp 1723054610"}},{"text":"]","color":"gray"},{"text":": "},{"text":"Virus 2","color":"yellow","bold":"true","hoverEvent":{"action":"show_text","value":{"text":"Virus 2","color":"yellow"}},"clickEvent":{"action":"run_command","value":"/scoreboard players set @p gp.tp 1723054610"}},{"text":" has stopped!","color":"red"}]}
kill @e[tag=vr2.entity]
fill -64 63 -67 -59 63 -72 redstone_block 0 replace stonebrick 0
fill -65 60 -66 -58 60 -73 redstone_block 0 replace stonebrick 0
scoreboard objectives remove vr2.
scoreboard objectives remove vr2.pl
scoreboard objectives remove vr2.ti
scoreboard objectives remove vr2.chi
scoreboard objectives remove vr2.cvr
scoreboard objectives remove vr2.gl
scoreboard objectives remove vr2.cl
scoreboard objectives remove vr2.igl
scoreboard objectives remove vr2.igt
scoreboard objectives remove vr2.icd
scoreboard objectives remove vr2.st
scoreboard teams remove vr2.h
scoreboard teams remove vr2.v
scoreboard teams remove vr2.d_y
scoreboard teams remove vr2.d_g
