execute @s[team=!vr2.v] ~ ~ ~ function ego:virus/virus_2/init_player_as_hider if @e[type=minecraft:armor_stand,score_vr2.st_min=0,score_vr2.st=1,tag=vr2.stand]
execute @s[team=vr2.v] ~ ~ ~ function ego:virus/virus_2/init_player_as_hider_from_virus if @e[type=minecraft:armor_stand,score_vr2.st_min=0,score_vr2.st=1,tag=vr2.stand]
function ego:virus/virus_2/add_to_round_as_hider if @e[type=minecraft:armor_stand,score_vr2.st_min=2,tag=vr2.stand]
