clear @s
effect @s clear
scoreboard players set @s[score_g.host_min=1,score_g.host=1] gp.bk 1846441401
function ego:blockhunt/train_station/undisguise
scoreboard teams join bhts.h @s
execute @s[team=bhts.h] ~ ~ ~ function ego:blockhunt/train_station/give_disguise
minecraft:tp @s[team=bhts.h] -1282 12 -98
scoreboard players set @s bhts.pl 2
