clear @s
effect @s clear
scoreboard players set @s[score_g.host_min=1,score_g.host=1] gp.bk 1846441401
function ego:blockhunt/train_station/undisguise
scoreboard teams join bhts.h @s
scoreboard players set @s bhts.pl 1
