execute @s[team=!bhts.v] ~ ~ ~ function ego:blockhunt/train_station/init_player_as_hider if @e[type=minecraft:armor_stand,score_bhts.st_min=0,score_bhts.st=1,tag=bhts.stand]
execute @s[team=bhts.v] ~ ~ ~ function ego:blockhunt/train_station/init_player_as_hider_from_virus if @e[type=minecraft:armor_stand,score_bhts.st_min=0,score_bhts.st=1,tag=bhts.stand]
function ego:blockhunt/train_station/add_to_round_as_hider if @e[type=minecraft:armor_stand,score_bhts.st_min=2,tag=bhts.stand]
