tellraw @a[score_g.sa_min=1,score_g.sa=1] {"text":"","extra":[{"text":"[","color":"gray"},{"text":"DirtR","color":"gray","bold":"true","hoverEvent":{"action":"show_text","value":{"text":"Dirt Race","color":"gray"}},"clickEvent":{"action":"run_command","value":"/scoreboard players set @p gp.tp 738387099"}},{"text":"]","color":"gray"},{"text":": "},{"selector":"@s"},{"text":" took first place!","color":"green"}]}
playsound minecraft:entity.player.levelup voice @a
fill 64 12 -203 63 12 -203 redstone_block
scoreboard players set @s dirtr.pc 1
scoreboard players operation @s dirtr. = @s dirtr.pc
scoreboard players operation @s dirtr. *= -1 g.number
