scoreboard players set @a[m=2,score_g.sa_min=1,score_g.sa=1,score_vr1.pl_min=2,score_vr1.pl=2] gp.tp 2115807378
scoreboard teams join vr1.h @a[m=2,team=vr1.v,score_g.sa_min=1,score_g.sa=1,score_vr1.pl_min=2,score_vr1.pl=2]
scoreboard players set @a[m=2,score_g.sa_min=1,score_g.sa=1,score_vr1.pl_min=2,score_vr1.pl=2] vr1.pl 0
fill -73 52 -222 -66 52 -229 redstone_block 0 replace stonebrick 0
fill -73 49 -229 -66 49 -222 redstone_block 0 replace stonebrick 0
scoreboard players reset Countdown vr1.
scoreboard players reset Minutes vr1.
scoreboard players reset Seconds vr1.
scoreboard players set @s vr1.st 0
