execute @s[score_vr1.chi_min=0,score_vr1.chi=0] ~ ~ ~ title @a title {"text":"The virus won!","color":"yellow"}
execute @s[score_vr1.chi_min=0,score_vr1.chi=0] ~ ~ ~ tellraw @a {"text":"","extra":[{"text":"[","color":"gray"},{"text":"VR1","color":"yellow","bold":"true","hoverEvent":{"action":"show_text","value":{"text":"Virus 1","color":"yellow"}},"clickEvent":{"action":"run_command","value":"/scoreboard players set @p gp.tp 2115807378"}},{"text":"]","color":"gray"},{"text":": "},{"text":"The virus won!","color":"yellow"}]}
execute @s[score_vr1.chi_min=1] ~ ~ ~ title @a title {"text":"Time!","color":"green"}
execute @s[score_vr1.chi_min=1] ~ ~ ~ title @a subtitle {"text":"The hiders won!","color":"green"}
execute @s[score_vr1.chi_min=1] ~ ~ ~ tellraw @a {"text":"","extra":[{"text":"[","color":"gray"},{"text":"VR1","color":"yellow","bold":"true","hoverEvent":{"action":"show_text","value":{"text":"Virus 1","color":"yellow"}},"clickEvent":{"action":"run_command","value":"/scoreboard players set @p gp.tp 2115807378"}},{"text":"]","color":"gray"},{"text":": "},{"text":"The time is up! The hiders won!","color":"yellow"}]}
execute @s[score_vr1.chi_min=1] ~ ~ ~ scoreboard players reset Seconds vr1.
execute @s[score_vr1.chi_min=1] ~ ~ ~ scoreboard players reset Minutes vr1.
tellraw @a {"text":"","extra":[{"text":"[","color":"gray"},{"text":"VR1","color":"yellow","bold":"true","hoverEvent":{"action":"show_text","value":{"text":"Virus 1","color":"yellow"}},"clickEvent":{"action":"run_command","value":"/scoreboard players set @p gp.tp 2115807378"}},{"text":"]","color":"gray"},{"text":": "},{"text":"Hiders: ","color":"green"},{"selector":"@a[m=2,team=vr1.h,score_g.sa_min=1,score_g.sa=1,score_vr1.pl_min=2,score_vr1.pl=2]"}]}
tellraw @a {"text":"","extra":[{"text":"[","color":"gray"},{"text":"VR1","color":"yellow","bold":"true","hoverEvent":{"action":"show_text","value":{"text":"Virus 1","color":"yellow"}},"clickEvent":{"action":"run_command","value":"/scoreboard players set @p gp.tp 2115807378"}},{"text":"]","color":"gray"},{"text":": "},{"text":"Virus: ","color":"yellow"},{"selector":"@a[m=2,team=vr1.v,score_g.sa_min=1,score_g.sa=1,score_vr1.pl_min=2,score_vr1.pl=2]"}]}
fill -73 52 -222 -66 52 -229 redstone_block 0 replace stonebrick 0
fill -73 49 -229 -66 49 -222 redstone_block 0 replace stonebrick 0
scoreboard players set @s vr1.st 5
