clear @s
effect @s clear
scoreboard players set @s[score_g.host_min=1,score_g.host=1] gp.bk 1452979271
function ego:blockhunt/old/undisguise
scoreboard teams join bho.h @s
scoreboard players set @s bho.pl 1
