execute @s[team=!bho.v] ~ ~ ~ function ego:blockhunt/old/init_player_as_hider if @e[type=minecraft:armor_stand,score_bho.st_min=0,score_bho.st=1,tag=bho.stand]
execute @s[team=bho.v] ~ ~ ~ function ego:blockhunt/old/init_player_as_hider_from_virus if @e[type=minecraft:armor_stand,score_bho.st_min=0,score_bho.st=1,tag=bho.stand]
function ego:blockhunt/old/add_to_round_as_hider if @e[type=minecraft:armor_stand,score_bho.st_min=2,tag=bho.stand]
