execute @a[m=2,score_nr.pl_min=1,score_nr.pl=1] ~ ~ ~ function ego:race/nether_race/reset_player
scoreboard players reset * g.host
scoreboard players set @e[type=minecraft:armor_stand,tag=gp.stand] gp.pvp 0
scoreboard players set @e[type=minecraft:armor_stand,tag=gp.stand] gp.sat 1
gamerule naturalRegeneration true
scoreboard players set @e[type=minecraft:armor_stand,tag=gp.stand] gp.rgt 0
scoreboard players set @e[type=minecraft:armor_stand,score_gp.cgi_min=1892113393,score_gp.cgi=1892113393,tag=gp.stand] gp.tp 0
scoreboard players set @e[type=minecraft:armor_stand,score_gp.cgi_min=1892113393,score_gp.cgi=1892113393,tag=gp.stand] gp.cgi 0
tellraw @a[score_gr.ec_min=1,score_gr.ec=1] {"text":"","extra":[{"text":"[","color":"gray"},{"text":"NR","color":"red","bold":"true","hoverEvent":{"action":"show_text","value":{"text":"Nether Race","color":"red"}},"clickEvent":{"action":"run_command","value":"/scoreboard players set @p gp.tp 1892113393"}},{"text":"]","color":"gray"},{"text":": "},{"text":"Nether Race","color":"red","bold":"true","hoverEvent":{"action":"show_text","value":{"text":"Nether Race","color":"red"}},"clickEvent":{"action":"run_command","value":"/scoreboard players set @p gp.tp 1892113393"}},{"text":" has stopped!","color":"red"}]}
scoreboard objectives remove nr.
scoreboard objectives remove nr.cd
scoreboard objectives remove nr.pl
scoreboard objectives remove nr.pc
scoreboard objectives remove nr.cp
scoreboard teams remove nr.r
kill @e[tag=nr.entity]
setblock 73 12 -102 air
setblock 73 12 -100 air
setblock 73 12 -104 air
fill 68 5 -100 68 5 -104 redstone_block 0 replace stonebrick 0
