scoreboard players tag @e[type=minecraft:armor_stand,score_gp.cgi_min=0,score_gp.cgi=0,tag=gp.stand] add gp.can_init
function ego:blockhunt/apocalypse/init if @e[type=minecraft:armor_stand,tag=gp.can_init]
execute @e[type=minecraft:armor_stand,tag=gp.stand] ~ ~ ~ function ego:floo_network/stop_events if @s[tag=!gp.can_init]
scoreboard players tag @e[type=minecraft:armor_stand,tag=gp.can_init] remove gp.can_init
