clear @s
effect @s clear
scoreboard players set @s[score_g.host_min=1,score_g.host=1] gp.bk 725637627
function ego:blockhunt/apocalypse/undisguise
scoreboard teams join bha.h @s
execute @s[team=bha.h] ~ ~ ~ function ego:blockhunt/apocalypse/give_disguise
minecraft:tp @s[team=bha.h] -1544 7 -52
scoreboard players set @s bha.pl 2
