clear @s
effect @s clear
scoreboard players set @s[score_g.host_min=1,score_g.host=1] gp.bk 725637627
function ego:blockhunt/apocalypse/undisguise
scoreboard teams join bha.h @s
scoreboard players set @s bha.pl 1
