execute @s[team=!bha.v] ~ ~ ~ function ego:blockhunt/apocalypse/init_player_as_hider if @e[type=minecraft:armor_stand,score_bha.st_min=0,score_bha.st=1,tag=bha.stand]
execute @s[team=bha.v] ~ ~ ~ function ego:blockhunt/apocalypse/init_player_as_hider_from_virus if @e[type=minecraft:armor_stand,score_bha.st_min=0,score_bha.st=1,tag=bha.stand]
function ego:blockhunt/apocalypse/add_to_round_as_hider if @e[type=minecraft:armor_stand,score_bha.st_min=2,tag=bha.stand]
