clear @s
effect @s clear
scoreboard players set @s[score_g.host_min=1,score_g.host=1] gp.bk 763457061
function ego:blockhunt/a_small_village/undisguise
scoreboard teams join bhasv.h @s
execute @s[team=bhasv.h] ~ ~ ~ function ego:blockhunt/a_small_village/give_disguise
minecraft:tp @s[team=bhasv.h] -1423 7 -169
scoreboard players set @s bhasv.pl 2
