execute @s[team=!bhasv.v] ~ ~ ~ function ego:blockhunt/a_small_village/init_player_as_hider if @e[type=minecraft:armor_stand,score_bhasv.st_min=0,score_bhasv.st=1,tag=bhasv.stand]
execute @s[team=bhasv.v] ~ ~ ~ function ego:blockhunt/a_small_village/init_player_as_hider_from_virus if @e[type=minecraft:armor_stand,score_bhasv.st_min=0,score_bhasv.st=1,tag=bhasv.stand]
function ego:blockhunt/a_small_village/add_to_round_as_hider if @e[type=minecraft:armor_stand,score_bhasv.st_min=2,tag=bhasv.stand]
