{
    "location": "DIAMOND_RACE",
    "required_laps": 2,

    "finish_line_coords": "224 18 -42 230 28 -41",
    "lap_reset_coords": "249 4 -28 250 19 -22",
    "spawn_coords": "214 16 -38 230 21 -35"
}


