function ego:sand_tomb/reset_player
give @s minecraft:carrot_on_a_stick 1 0 {display:{Name:"Unstuckifier",Lore:["Right click on me","if you are stuck on","a block!"]}}
scoreboard players set @s STpl 2
