scoreboard players add @e[type=armor_stand,tag=STStand] STwc 1
function ego:sand_tomb/full_reset_player
summon fireworks_rocket -250 25 18 {LifeTime:20,FireworksItem:{id:fireworks,Count:1,tag:{Fireworks:{Explosions:[{Type:0,Flicker:1,Trail:0,Colors:[I;41728,65280],FadeColors:[I;2883328]}]}}}}
