clear @s
effect @s clear
scoreboard players set @s[score_g.host_min=1,score_g.host=1] gp.bk 772601972
function ego:blockhunt/mastermind/undisguise
scoreboard teams join bhmm.h @s
execute @s[team=bhmm.h] ~ ~ ~ function ego:blockhunt/mastermind/give_disguise
minecraft:tp @s[team=bhmm.h] -1177 21 -273
scoreboard players set @s bhmm.pl 2
