clear @s
effect @s clear
scoreboard players set @s[score_g.host_min=1,score_g.host=1] gp.bk 772601972
function ego:blockhunt/mastermind/undisguise
scoreboard teams join bhmm.h @s
scoreboard players set @s bhmm.pl 1
