execute @s[team=!bhmm.v] ~ ~ ~ function ego:blockhunt/mastermind/init_player_as_hider if @e[type=minecraft:armor_stand,score_bhmm.st_min=0,score_bhmm.st=1,tag=bhmm.stand]
execute @s[team=bhmm.v] ~ ~ ~ function ego:blockhunt/mastermind/init_player_as_hider_from_virus if @e[type=minecraft:armor_stand,score_bhmm.st_min=0,score_bhmm.st=1,tag=bhmm.stand]
function ego:blockhunt/mastermind/add_to_round_as_hider if @e[type=minecraft:armor_stand,score_bhmm.st_min=2,tag=bhmm.stand]
