clear @s
effect @s clear
scoreboard players set @s[score_g.host_min=1,score_g.host=1] gp.bk 6296492
function ego:blockhunt/hasdaa/undisguise
scoreboard teams join bhhd.h @s
execute @s[team=bhhd.h] ~ ~ ~ function ego:blockhunt/hasdaa/give_disguise
minecraft:tp @s[team=bhhd.h] -1103 7 -35 -90 0
scoreboard players set @s bhhd.pl 2
