clear @s
effect @s clear
scoreboard players set @s[score_g.host_min=1,score_g.host=1] gp.bk 6296492
function ego:blockhunt/hasdaa/undisguise
scoreboard teams join bhhd.h @s
scoreboard players set @s bhhd.pl 1
