execute @s[team=!bhhd.v] ~ ~ ~ function ego:blockhunt/hasdaa/init_player_as_hider if @e[type=minecraft:armor_stand,score_bhhd.st_min=0,score_bhhd.st=1,tag=bhhd.stand]
execute @s[team=bhhd.v] ~ ~ ~ function ego:blockhunt/hasdaa/init_player_as_hider_from_virus if @e[type=minecraft:armor_stand,score_bhhd.st_min=0,score_bhhd.st=1,tag=bhhd.stand]
function ego:blockhunt/hasdaa/add_to_round_as_hider if @e[type=minecraft:armor_stand,score_bhhd.st_min=2,tag=bhhd.stand]
