clear @s
effect @s clear
scoreboard players set @s[score_g.host_min=1,score_g.host=1] gp.bk 942106152
function ego:blockhunt/virus_1/undisguise
scoreboard teams join bhvr1.h @s
execute @s[team=bhvr1.h] ~ ~ ~ function ego:blockhunt/virus_1/give_disguise
minecraft:tp @s[team=bhvr1.h] -69.0 38 -225.0
scoreboard players set @s bhvr1.pl 2
