clear @s
effect @s clear
scoreboard players set @s[score_g.host_min=1,score_g.host=1] gp.bk 942106152
function ego:blockhunt/virus_1/undisguise
scoreboard teams join bhvr1.h @s
scoreboard players set @s bhvr1.pl 1
