execute @s[team=!bhvr1.v] ~ ~ ~ function ego:blockhunt/virus_1/init_player_as_hider if @e[type=minecraft:armor_stand,score_bhvr1.st_min=0,score_bhvr1.st=1,tag=bhvr1.stand]
execute @s[team=bhvr1.v] ~ ~ ~ function ego:blockhunt/virus_1/init_player_as_hider_from_virus if @e[type=minecraft:armor_stand,score_bhvr1.st_min=0,score_bhvr1.st=1,tag=bhvr1.stand]
function ego:blockhunt/virus_1/add_to_round_as_hider if @e[type=minecraft:armor_stand,score_bhvr1.st_min=2,tag=bhvr1.stand]
