{
    "location": "EVIL_RACE",
    "spawn": {
        "select_coords": "21 7 -137 31 10 -129",
        "tp_coords": "23 7 -133 -90 0"
    },

    "checkpoints": [],

    "places": [
        {
            "message": null,
            "additional_cmds": [],
            "select_coords": "36 16 -133 36 18 -133",
            "fills": [
                {
                    "coords": "36 16 -133",
                    "block": "redstone_block"
                }
            ]
        },
        {
            "message": null,
            "additional_cmds": [],
            "select_coords": "36 16 -130 36 18 -130",
            "fills": [
                {
                    "coords": "36 16 -130",
                    "block": "redstone_block"
                }
            ]
        },
        {
            "message": null,
            "additional_cmds": [],
            "select_coords": "36 16 -136 36 18 -136",
            "fills": [
                {
                    "coords": "36 16 -136",
                    "block": "redstone_block"
                }
            ]
        }
    ]
}

