{
    "location": "DIRT_RACE",
    "spawn": {
        "select_coords": "19 14 -192 27 19 -187",
        "tp_coords": "23 15 -189.0 -90 0"
    },

    "checkpoints": [
        {
            "select_coords": "48 25 -179 50 29 -179",
            "tp_coords": "49 25 -179 0 45"
        }
    ],

    "places": [
        {
            "message": null,
            "additional_cmds": [],
            "select_coords": "63 15 -204 64 16 -204",
            "fills": [
                {
                    "coords": "64 12 -203 63 12 -203",
                    "block": "redstone_block"
                }
            ]
        },
        {
            "message": null,
            "additional_cmds": [],
            "select_coords": "66 15 -204 66 16 -204",
            "fills": [
                {
                    "coords": "66 12 -203",
                    "block": "redstone_block"
                }
            ]
        },
        {
            "message": null,
            "additional_cmds": [],
            "select_coords": "61 15 -204 61 16 -204",
            "fills": [
                {
                    "coords": "61 12 -203",
                    "block": "redstone_block"
                }
            ]
        }
    ]
}



